                                                                                         _____
                                                                                      _.'_____`._
                                                                                    .'.-'  12 `-.`.
  _______ _                  _______                  _                            /,' 11      1 `.\
 |__   __(_)                |__   __|                | |      _     ____   ___    // 10      /   2 \\
    | |   _ _ __ ___   ___     | |_ __ __ ___   _____| |     / \   |  _ \ |_ _|  ;;         /       ::
    | |  | | '_ ` _ \ / _ \    | | '__/ _` \ \ / / _ \ |    / _ \  | |_) | | |   || 9  --- O      3 ||
    | |  | | | | | | |  __/    | | | | (_| |\ V /  __/ |   / ___ \ |  __/  | |   ::                 ;;
    |_|  |_|_| |_| |_|\___|    |_|_|  \__,_| \_/ \___|_|  /_/   \_\|_|    |___|   \\ 8           4 //
===================================================================================\`. 7       5 ,'/===
:: Powered by Spring Boot ::                                                        '.`-.__6__.-'.'
                                                                                     ((-._____.-))
                                                                                     _))       ((_
                                                                                    '--'       '--'
